<?xml version="1.0"?>
<robot name="simple_camera" xmlns:xacro="http://ros.org/wiki/xacro">
  <xacro:include filename="$(find inspection_robot_description)/urdf/sensors/simple_camera_gazebo.urdf.xacro"/>
  <xacro:include filename="$(find turtlebot_description)/urdf/turtlebot_properties.urdf.xacro"/>
  
  <!-- Xacro properties -->
<xacro:property name="cameraSize" value="0.05"/>
<xacro:property name="cameraMass" value="0.0"/>

  <!-- Parameterised in part by the values in turtlebot_properties.urdf.xacro -->
  <xacro:macro name="simple_camera" params="parent">
   <joint name="camera_rgb_joint" type="fixed">
      <origin xyz="0.12 0 0.23" rpy="0 0 0"/>
      <parent link="${parent}"/>
      <child link="camera" />
    </joint>
    <link name="camera">
    <collision>
        <origin xyz="0 0 0" rpy="0 0 0"/>
        <geometry>
        <box size="${cameraSize} ${cameraSize} ${cameraSize}"/>
        </geometry>
    </collision>

  <visual>
    <origin xyz="0.02 -0.05 0.05" rpy="0 0 ${M_PI/2}"/>
    <geometry>
      <!--<box size="${cameraSize} ${cameraSize} ${cameraSize}"/>-->
      <mesh filename="package://inspection_robot_description/mesh/Logitech_C920.stl"/>
    </geometry>
    <material name="blue"/>
  </visual>

  <!--<inertial>
    <mass value="${cameraMass}" />
    <origin xyz="0 0 0" rpy="0 0 0"/>
    <box_inertia m="${cameraMass}" x="${cameraSize}" y="${cameraSize}" z="${cameraSize}" />
    <inertia
        ixx="1.0" ixy="0.0" ixz="0.0"
        iyy="1.0" iyz="0.0"
        izz="1.0"/>
  </inertial>-->
</link>
<simple_camera_m/>
  </xacro:macro>
</robot>
